%!PS-Adobe-3.0
%%Creator: PCBNEW
%%CreationDate: Thu Mar 10 04:07:39 2016
%%Title: /home/bkc/sources/rpi_relay/rpi-mb/rpi-mb-drl_map.ps
%%Pages: 1
%%PageOrder: Ascend
%%BoundingBox: 0 0 596 842
%%DocumentMedia: A4 595 842 0 () ()
%%Orientation: Landscape
%%EndComments
%%BeginProlog
/line { newpath moveto lineto stroke } bind def
/cir0 { newpath 0 360 arc stroke } bind def
/cir1 { newpath 0 360 arc gsave fill grestore stroke } bind def
/cir2 { newpath 0 360 arc gsave fill grestore stroke } bind def
/arc0 { newpath arc stroke } bind def
/arc1 { newpath 4 index 4 index moveto arc closepath gsave fill
    grestore stroke } bind def
/arc2 { newpath 4 index 4 index moveto arc closepath gsave fill
    grestore stroke } bind def
/poly0 { stroke } bind def
/poly1 { closepath gsave fill grestore stroke } bind def
/poly2 { closepath gsave fill grestore stroke } bind def
/rect0 { rectstroke } bind def
/rect1 { rectfill } bind def
/rect2 { rectfill } bind def
/linemode0 { 0 setlinecap 0 setlinejoin 0 setlinewidth } bind def
/linemode1 { 1 setlinecap 1 setlinejoin } bind def
/dashedline { [200] 100 setdash } bind def
/solidline { [] 0 setdash } bind def
/phantomshow { moveto
    /KicadFont findfont 0.000001 scalefont setfont
    show } bind def
/textshow { gsave
    findfont exch scalefont setfont concat 1 scale 0 0 moveto show
    } bind def
/reencodefont {
  findfont dup length dict begin
  { 1 index /FID ne
    { def }
    { pop pop } ifelse
  } forall
  /Encoding ISOLatin1Encoding def
  currentdict
  end } bind def
/KicadFont /Helvetica reencodefont definefont pop
/KicadFont-Bold /Helvetica-Bold reencodefont definefont pop
/KicadFont-Oblique /Helvetica-Oblique reencodefont definefont pop
/KicadFont-BoldOblique /Helvetica-BoldOblique reencodefont definefont pop
%%EndProlog
%%Page: 1 1
%%BeginPageSetup
gsave
0.0072 0.0072 scale
linemode1
82680 0 translate 90 rotate
150 setlinewidth
%%EndPageSetup
78.7394 setlinewidth
newpath
99985 31356 moveto
100945 30396 lineto
stroke
newpath
100945 31356 moveto
99985 30396 lineto
stroke
newpath
99985 28356 moveto
100945 27396 lineto
stroke
newpath
100945 28356 moveto
99985 27396 lineto
stroke
newpath
99985 19356 moveto
100945 18396 lineto
stroke
newpath
100945 19356 moveto
99985 18396 lineto
stroke
newpath
99985 8856 moveto
100945 7896 lineto
stroke
newpath
100945 8856 moveto
99985 7896 lineto
stroke
newpath
102985 8856 moveto
103945 7896 lineto
stroke
newpath
103945 8856 moveto
102985 7896 lineto
stroke
newpath
104485 20856 moveto
105445 19896 lineto
stroke
newpath
105445 20856 moveto
104485 19896 lineto
stroke
newpath
107485 20856 moveto
108445 19896 lineto
stroke
newpath
108445 20856 moveto
107485 19896 lineto
stroke
newpath
108985 31356 moveto
109945 30396 lineto
stroke
newpath
109945 31356 moveto
108985 30396 lineto
stroke
newpath
111985 31356 moveto
112945 30396 lineto
stroke
newpath
112945 31356 moveto
111985 30396 lineto
stroke
newpath
111985 22356 moveto
112945 21396 lineto
stroke
newpath
112945 22356 moveto
111985 21396 lineto
stroke
100465 14376 600 cir0
103465 14376 600 cir0
106465 14376 600 cir0
109465 14376 600 cir0
112465 14376 600 cir0
118.11 setlinewidth
(Drill Map:) 59252.4 56576.8 phantomshow
newpath
59533.6 56098.7 moveto
59533.6 57279.8 lineto
59814.8 57279.8 lineto
59983.6 57223.6 lineto
60096 57111.1 lineto
60152.3 56998.6 lineto
60208.5 56773.6 lineto
60208.5 56604.9 lineto
60152.3 56379.9 lineto
60096 56267.5 lineto
59983.6 56155 lineto
59814.8 56098.7 lineto
59533.6 56098.7 lineto
stroke
newpath
60714.7 56098.7 moveto
60714.7 56886.1 lineto
stroke
newpath
60714.7 56661.2 moveto
60771 56773.6 lineto
60827.2 56829.9 lineto
60939.7 56886.1 lineto
61052.2 56886.1 lineto
stroke
newpath
61445.9 56098.7 moveto
61445.9 56886.1 lineto
stroke
newpath
61445.9 57279.8 moveto
61389.6 57223.6 lineto
61445.9 57167.3 lineto
61502.1 57223.6 lineto
61445.9 57279.8 lineto
61445.9 57167.3 lineto
stroke
newpath
62177 56098.7 moveto
62064.5 56155 lineto
62008.3 56267.5 lineto
62008.3 57279.8 lineto
stroke
newpath
62795.7 56098.7 moveto
62683.2 56155 lineto
62627 56267.5 lineto
62627 57279.8 lineto
stroke
newpath
64145.5 56098.7 moveto
64145.5 57279.8 lineto
64539.2 56436.2 lineto
64932.9 57279.8 lineto
64932.9 56098.7 lineto
stroke
newpath
66001.6 56098.7 moveto
66001.6 56717.4 lineto
65945.3 56829.9 lineto
65832.8 56886.1 lineto
65607.9 56886.1 lineto
65495.4 56829.9 lineto
stroke
newpath
66001.6 56155 moveto
65889.1 56098.7 lineto
65607.9 56098.7 lineto
65495.4 56155 lineto
65439.1 56267.5 lineto
65439.1 56379.9 lineto
65495.4 56492.4 lineto
65607.9 56548.7 lineto
65889.1 56548.7 lineto
66001.6 56604.9 lineto
stroke
newpath
66564 56886.1 moveto
66564 55705 lineto
stroke
newpath
66564 56829.9 moveto
66676.5 56886.1 lineto
66901.4 56886.1 lineto
67013.9 56829.9 lineto
67070.2 56773.6 lineto
67126.4 56661.2 lineto
67126.4 56323.7 lineto
67070.2 56211.2 lineto
67013.9 56155 lineto
66901.4 56098.7 lineto
66676.5 56098.7 lineto
66564 56155 lineto
stroke
newpath
67632.6 56211.2 moveto
67688.8 56155 lineto
67632.6 56098.7 lineto
67576.4 56155 lineto
67632.6 56211.2 lineto
67632.6 56098.7 lineto
stroke
newpath
67632.6 56829.9 moveto
67688.8 56773.6 lineto
67632.6 56717.4 lineto
67576.4 56773.6 lineto
67632.6 56829.9 lineto
67632.6 56717.4 lineto
stroke
newpath
57505 54576.5 moveto
58465 53616.5 lineto
stroke
newpath
58465 54576.5 moveto
57505 53616.5 lineto
stroke
(0.81mm / 0.032" \(10 holes\)) 59252.4 54096.5 phantomshow
newpath
59758.6 54799.5 moveto
59871.1 54799.5 lineto
59983.6 54743.3 lineto
60039.8 54687 lineto
60096 54574.5 lineto
60152.3 54349.6 lineto
60152.3 54068.4 lineto
60096 53843.4 lineto
60039.8 53730.9 lineto
59983.6 53674.7 lineto
59871.1 53618.4 lineto
59758.6 53618.4 lineto
59646.1 53674.7 lineto
59589.9 53730.9 lineto
59533.6 53843.4 lineto
59477.4 54068.4 lineto
59477.4 54349.6 lineto
59533.6 54574.5 lineto
59589.9 54687 lineto
59646.1 54743.3 lineto
59758.6 54799.5 lineto
stroke
newpath
60658.5 53730.9 moveto
60714.7 53674.7 lineto
60658.5 53618.4 lineto
60602.2 53674.7 lineto
60658.5 53730.9 lineto
60658.5 53618.4 lineto
stroke
newpath
61389.6 54293.3 moveto
61277.1 54349.6 lineto
61220.9 54405.8 lineto
61164.7 54518.3 lineto
61164.7 54574.5 lineto
61220.9 54687 lineto
61277.1 54743.3 lineto
61389.6 54799.5 lineto
61614.6 54799.5 lineto
61727.1 54743.3 lineto
61783.3 54687 lineto
61839.6 54574.5 lineto
61839.6 54518.3 lineto
61783.3 54405.8 lineto
61727.1 54349.6 lineto
61614.6 54293.3 lineto
61389.6 54293.3 lineto
61277.1 54237.1 lineto
61220.9 54180.8 lineto
61164.7 54068.4 lineto
61164.7 53843.4 lineto
61220.9 53730.9 lineto
61277.1 53674.7 lineto
61389.6 53618.4 lineto
61614.6 53618.4 lineto
61727.1 53674.7 lineto
61783.3 53730.9 lineto
61839.6 53843.4 lineto
61839.6 54068.4 lineto
61783.3 54180.8 lineto
61727.1 54237.1 lineto
61614.6 54293.3 lineto
stroke
newpath
62964.4 53618.4 moveto
62289.5 53618.4 lineto
stroke
newpath
62627 53618.4 moveto
62627 54799.5 lineto
62514.5 54630.8 lineto
62402 54518.3 lineto
62289.5 54462.1 lineto
stroke
newpath
63470.6 53618.4 moveto
63470.6 54405.8 lineto
stroke
newpath
63470.6 54293.3 moveto
63526.9 54349.6 lineto
63639.4 54405.8 lineto
63808.1 54405.8 lineto
63920.6 54349.6 lineto
63976.8 54237.1 lineto
63976.8 53618.4 lineto
stroke
newpath
63976.8 54237.1 moveto
64033.1 54349.6 lineto
64145.5 54405.8 lineto
64314.3 54405.8 lineto
64426.8 54349.6 lineto
64483 54237.1 lineto
64483 53618.4 lineto
stroke
newpath
65045.4 53618.4 moveto
65045.4 54405.8 lineto
stroke
newpath
65045.4 54293.3 moveto
65101.7 54349.6 lineto
65214.2 54405.8 lineto
65382.9 54405.8 lineto
65495.4 54349.6 lineto
65551.6 54237.1 lineto
65551.6 53618.4 lineto
stroke
newpath
65551.6 54237.1 moveto
65607.9 54349.6 lineto
65720.3 54405.8 lineto
65889.1 54405.8 lineto
66001.6 54349.6 lineto
66057.8 54237.1 lineto
66057.8 53618.4 lineto
stroke
newpath
68363.8 54855.8 moveto
67351.4 53337.2 lineto
stroke
newpath
69882.3 54799.5 moveto
69994.8 54799.5 lineto
70107.3 54743.3 lineto
70163.5 54687 lineto
70219.8 54574.5 lineto
70276 54349.6 lineto
70276 54068.4 lineto
70219.8 53843.4 lineto
70163.5 53730.9 lineto
70107.3 53674.7 lineto
69994.8 53618.4 lineto
69882.3 53618.4 lineto
69769.8 53674.7 lineto
69713.6 53730.9 lineto
69657.3 53843.4 lineto
69601.1 54068.4 lineto
69601.1 54349.6 lineto
69657.3 54574.5 lineto
69713.6 54687 lineto
69769.8 54743.3 lineto
69882.3 54799.5 lineto
stroke
newpath
70782.2 53730.9 moveto
70838.5 53674.7 lineto
70782.2 53618.4 lineto
70726 53674.7 lineto
70782.2 53730.9 lineto
70782.2 53618.4 lineto
stroke
newpath
71569.6 54799.5 moveto
71682.1 54799.5 lineto
71794.6 54743.3 lineto
71850.8 54687 lineto
71907.1 54574.5 lineto
71963.3 54349.6 lineto
71963.3 54068.4 lineto
71907.1 53843.4 lineto
71850.8 53730.9 lineto
71794.6 53674.7 lineto
71682.1 53618.4 lineto
71569.6 53618.4 lineto
71457.1 53674.7 lineto
71400.9 53730.9 lineto
71344.6 53843.4 lineto
71288.4 54068.4 lineto
71288.4 54349.6 lineto
71344.6 54574.5 lineto
71400.9 54687 lineto
71457.1 54743.3 lineto
71569.6 54799.5 lineto
stroke
newpath
72357 54799.5 moveto
73088.2 54799.5 lineto
72694.5 54349.6 lineto
72863.2 54349.6 lineto
72975.7 54293.3 lineto
73031.9 54237.1 lineto
73088.2 54124.6 lineto
73088.2 53843.4 lineto
73031.9 53730.9 lineto
72975.7 53674.7 lineto
72863.2 53618.4 lineto
72525.7 53618.4 lineto
72413.3 53674.7 lineto
72357 53730.9 lineto
stroke
newpath
73538.1 54687 moveto
73594.4 54743.3 lineto
73706.8 54799.5 lineto
73988.1 54799.5 lineto
74100.5 54743.3 lineto
74156.8 54687 lineto
74213 54574.5 lineto
74213 54462.1 lineto
74156.8 54293.3 lineto
73481.9 53618.4 lineto
74213 53618.4 lineto
stroke
newpath
74663 54799.5 moveto
74663 54574.5 lineto
stroke
newpath
75112.9 54799.5 moveto
75112.9 54574.5 lineto
stroke
newpath
76856.4 53168.5 moveto
76800.2 53224.7 lineto
76687.7 53393.4 lineto
76631.5 53505.9 lineto
76575.2 53674.7 lineto
76519 53955.9 lineto
76519 54180.8 lineto
76575.2 54462.1 lineto
76631.5 54630.8 lineto
76687.7 54743.3 lineto
76800.2 54912 lineto
76856.4 54968.2 lineto
stroke
newpath
77925.1 53618.4 moveto
77250.1 53618.4 lineto
stroke
newpath
77587.6 53618.4 moveto
77587.6 54799.5 lineto
77475.1 54630.8 lineto
77362.6 54518.3 lineto
77250.1 54462.1 lineto
stroke
newpath
78656.2 54799.5 moveto
78768.7 54799.5 lineto
78881.2 54743.3 lineto
78937.4 54687 lineto
78993.7 54574.5 lineto
79049.9 54349.6 lineto
79049.9 54068.4 lineto
78993.7 53843.4 lineto
78937.4 53730.9 lineto
78881.2 53674.7 lineto
78768.7 53618.4 lineto
78656.2 53618.4 lineto
78543.7 53674.7 lineto
78487.5 53730.9 lineto
78431.3 53843.4 lineto
78375 54068.4 lineto
78375 54349.6 lineto
78431.3 54574.5 lineto
78487.5 54687 lineto
78543.7 54743.3 lineto
78656.2 54799.5 lineto
stroke
newpath
80456 53618.4 moveto
80456 54799.5 lineto
stroke
newpath
80962.2 53618.4 moveto
80962.2 54237.1 lineto
80905.9 54349.6 lineto
80793.5 54405.8 lineto
80624.7 54405.8 lineto
80512.2 54349.6 lineto
80456 54293.3 lineto
stroke
newpath
81693.3 53618.4 moveto
81580.9 53674.7 lineto
81524.6 53730.9 lineto
81468.4 53843.4 lineto
81468.4 54180.8 lineto
81524.6 54293.3 lineto
81580.9 54349.6 lineto
81693.3 54405.8 lineto
81862.1 54405.8 lineto
81974.6 54349.6 lineto
82030.8 54293.3 lineto
82087 54180.8 lineto
82087 53843.4 lineto
82030.8 53730.9 lineto
81974.6 53674.7 lineto
81862.1 53618.4 lineto
81693.3 53618.4 lineto
stroke
newpath
82762 53618.4 moveto
82649.5 53674.7 lineto
82593.2 53787.1 lineto
82593.2 54799.5 lineto
stroke
newpath
83661.9 53674.7 moveto
83549.4 53618.4 lineto
83324.4 53618.4 lineto
83211.9 53674.7 lineto
83155.7 53787.1 lineto
83155.7 54237.1 lineto
83211.9 54349.6 lineto
83324.4 54405.8 lineto
83549.4 54405.8 lineto
83661.9 54349.6 lineto
83718.1 54237.1 lineto
83718.1 54124.6 lineto
83155.7 54012.1 lineto
stroke
newpath
84168 53674.7 moveto
84280.5 53618.4 lineto
84505.5 53618.4 lineto
84618 53674.7 lineto
84674.2 53787.1 lineto
84674.2 53843.4 lineto
84618 53955.9 lineto
84505.5 54012.1 lineto
84336.8 54012.1 lineto
84224.3 54068.4 lineto
84168 54180.8 lineto
84168 54237.1 lineto
84224.3 54349.6 lineto
84336.8 54405.8 lineto
84505.5 54405.8 lineto
84618 54349.6 lineto
stroke
newpath
85067.9 53168.5 moveto
85124.2 53224.7 lineto
85236.7 53393.4 lineto
85292.9 53505.9 lineto
85349.1 53674.7 lineto
85405.4 53955.9 lineto
85405.4 54180.8 lineto
85349.1 54462.1 lineto
85292.9 54630.8 lineto
85236.7 54743.3 lineto
85124.2 54912 lineto
85067.9 54968.2 lineto
stroke
78.7394 setlinewidth
57865 52537.4 600 cir0
118.11 setlinewidth
(1.02mm / 0.040" \(5 holes\)) 59252.4 52537.4 phantomshow
newpath
60152.3 52059.4 moveto
59477.4 52059.4 lineto
stroke
newpath
59814.8 52059.4 moveto
59814.8 53240.5 lineto
59702.3 53071.7 lineto
59589.9 52959.2 lineto
59477.4 52903 lineto
stroke
newpath
60658.5 52171.8 moveto
60714.7 52115.6 lineto
60658.5 52059.4 lineto
60602.2 52115.6 lineto
60658.5 52171.8 lineto
60658.5 52059.4 lineto
stroke
newpath
61445.9 53240.5 moveto
61558.4 53240.5 lineto
61670.8 53184.2 lineto
61727.1 53128 lineto
61783.3 53015.5 lineto
61839.6 52790.5 lineto
61839.6 52509.3 lineto
61783.3 52284.3 lineto
61727.1 52171.8 lineto
61670.8 52115.6 lineto
61558.4 52059.4 lineto
61445.9 52059.4 lineto
61333.4 52115.6 lineto
61277.1 52171.8 lineto
61220.9 52284.3 lineto
61164.7 52509.3 lineto
61164.7 52790.5 lineto
61220.9 53015.5 lineto
61277.1 53128 lineto
61333.4 53184.2 lineto
61445.9 53240.5 lineto
stroke
newpath
62289.5 53128 moveto
62345.8 53184.2 lineto
62458.2 53240.5 lineto
62739.5 53240.5 lineto
62851.9 53184.2 lineto
62908.2 53128 lineto
62964.4 53015.5 lineto
62964.4 52903 lineto
62908.2 52734.3 lineto
62233.3 52059.4 lineto
62964.4 52059.4 lineto
stroke
newpath
63470.6 52059.4 moveto
63470.6 52846.8 lineto
stroke
newpath
63470.6 52734.3 moveto
63526.9 52790.5 lineto
63639.4 52846.8 lineto
63808.1 52846.8 lineto
63920.6 52790.5 lineto
63976.8 52678 lineto
63976.8 52059.4 lineto
stroke
newpath
63976.8 52678 moveto
64033.1 52790.5 lineto
64145.5 52846.8 lineto
64314.3 52846.8 lineto
64426.8 52790.5 lineto
64483 52678 lineto
64483 52059.4 lineto
stroke
newpath
65045.4 52059.4 moveto
65045.4 52846.8 lineto
stroke
newpath
65045.4 52734.3 moveto
65101.7 52790.5 lineto
65214.2 52846.8 lineto
65382.9 52846.8 lineto
65495.4 52790.5 lineto
65551.6 52678 lineto
65551.6 52059.4 lineto
stroke
newpath
65551.6 52678 moveto
65607.9 52790.5 lineto
65720.3 52846.8 lineto
65889.1 52846.8 lineto
66001.6 52790.5 lineto
66057.8 52678 lineto
66057.8 52059.4 lineto
stroke
newpath
68363.8 53296.7 moveto
67351.4 51778.1 lineto
stroke
newpath
69882.3 53240.5 moveto
69994.8 53240.5 lineto
70107.3 53184.2 lineto
70163.5 53128 lineto
70219.8 53015.5 lineto
70276 52790.5 lineto
70276 52509.3 lineto
70219.8 52284.3 lineto
70163.5 52171.8 lineto
70107.3 52115.6 lineto
69994.8 52059.4 lineto
69882.3 52059.4 lineto
69769.8 52115.6 lineto
69713.6 52171.8 lineto
69657.3 52284.3 lineto
69601.1 52509.3 lineto
69601.1 52790.5 lineto
69657.3 53015.5 lineto
69713.6 53128 lineto
69769.8 53184.2 lineto
69882.3 53240.5 lineto
stroke
newpath
70782.2 52171.8 moveto
70838.5 52115.6 lineto
70782.2 52059.4 lineto
70726 52115.6 lineto
70782.2 52171.8 lineto
70782.2 52059.4 lineto
stroke
newpath
71569.6 53240.5 moveto
71682.1 53240.5 lineto
71794.6 53184.2 lineto
71850.8 53128 lineto
71907.1 53015.5 lineto
71963.3 52790.5 lineto
71963.3 52509.3 lineto
71907.1 52284.3 lineto
71850.8 52171.8 lineto
71794.6 52115.6 lineto
71682.1 52059.4 lineto
71569.6 52059.4 lineto
71457.1 52115.6 lineto
71400.9 52171.8 lineto
71344.6 52284.3 lineto
71288.4 52509.3 lineto
71288.4 52790.5 lineto
71344.6 53015.5 lineto
71400.9 53128 lineto
71457.1 53184.2 lineto
71569.6 53240.5 lineto
stroke
newpath
72975.7 52846.8 moveto
72975.7 52059.4 lineto
stroke
newpath
72694.5 53296.7 moveto
72413.3 52453.1 lineto
73144.4 52453.1 lineto
stroke
newpath
73819.3 53240.5 moveto
73931.8 53240.5 lineto
74044.3 53184.2 lineto
74100.5 53128 lineto
74156.8 53015.5 lineto
74213 52790.5 lineto
74213 52509.3 lineto
74156.8 52284.3 lineto
74100.5 52171.8 lineto
74044.3 52115.6 lineto
73931.8 52059.4 lineto
73819.3 52059.4 lineto
73706.8 52115.6 lineto
73650.6 52171.8 lineto
73594.4 52284.3 lineto
73538.1 52509.3 lineto
73538.1 52790.5 lineto
73594.4 53015.5 lineto
73650.6 53128 lineto
73706.8 53184.2 lineto
73819.3 53240.5 lineto
stroke
newpath
74663 53240.5 moveto
74663 53015.5 lineto
stroke
newpath
75112.9 53240.5 moveto
75112.9 53015.5 lineto
stroke
newpath
76856.4 51609.4 moveto
76800.2 51665.7 lineto
76687.7 51834.4 lineto
76631.5 51946.9 lineto
76575.2 52115.6 lineto
76519 52396.8 lineto
76519 52621.8 lineto
76575.2 52903 lineto
76631.5 53071.7 lineto
76687.7 53184.2 lineto
76800.2 53352.9 lineto
76856.4 53409.2 lineto
stroke
newpath
77868.8 53240.5 moveto
77306.4 53240.5 lineto
77250.1 52678 lineto
77306.4 52734.3 lineto
77418.9 52790.5 lineto
77700.1 52790.5 lineto
77812.6 52734.3 lineto
77868.8 52678 lineto
77925.1 52565.5 lineto
77925.1 52284.3 lineto
77868.8 52171.8 lineto
77812.6 52115.6 lineto
77700.1 52059.4 lineto
77418.9 52059.4 lineto
77306.4 52115.6 lineto
77250.1 52171.8 lineto
stroke
newpath
79331.1 52059.4 moveto
79331.1 53240.5 lineto
stroke
newpath
79837.3 52059.4 moveto
79837.3 52678 lineto
79781.1 52790.5 lineto
79668.6 52846.8 lineto
79499.9 52846.8 lineto
79387.4 52790.5 lineto
79331.1 52734.3 lineto
stroke
newpath
80568.5 52059.4 moveto
80456 52115.6 lineto
80399.8 52171.8 lineto
80343.5 52284.3 lineto
80343.5 52621.8 lineto
80399.8 52734.3 lineto
80456 52790.5 lineto
80568.5 52846.8 lineto
80737.2 52846.8 lineto
80849.7 52790.5 lineto
80905.9 52734.3 lineto
80962.2 52621.8 lineto
80962.2 52284.3 lineto
80905.9 52171.8 lineto
80849.7 52115.6 lineto
80737.2 52059.4 lineto
80568.5 52059.4 lineto
stroke
newpath
81637.1 52059.4 moveto
81524.6 52115.6 lineto
81468.4 52228.1 lineto
81468.4 53240.5 lineto
stroke
newpath
82537 52115.6 moveto
82424.5 52059.4 lineto
82199.5 52059.4 lineto
82087 52115.6 lineto
82030.8 52228.1 lineto
82030.8 52678 lineto
82087 52790.5 lineto
82199.5 52846.8 lineto
82424.5 52846.8 lineto
82537 52790.5 lineto
82593.2 52678 lineto
82593.2 52565.5 lineto
82030.8 52453.1 lineto
stroke
newpath
83043.2 52115.6 moveto
83155.7 52059.4 lineto
83380.6 52059.4 lineto
83493.1 52115.6 lineto
83549.4 52228.1 lineto
83549.4 52284.3 lineto
83493.1 52396.8 lineto
83380.6 52453.1 lineto
83211.9 52453.1 lineto
83099.4 52509.3 lineto
83043.2 52621.8 lineto
83043.2 52678 lineto
83099.4 52790.5 lineto
83211.9 52846.8 lineto
83380.6 52846.8 lineto
83493.1 52790.5 lineto
stroke
newpath
83943.1 51609.4 moveto
83999.3 51665.7 lineto
84111.8 51834.4 lineto
84168 51946.9 lineto
84224.3 52115.6 lineto
84280.5 52396.8 lineto
84280.5 52621.8 lineto
84224.3 52903 lineto
84168 53071.7 lineto
84111.8 53184.2 lineto
83999.3 53352.9 lineto
83943.1 53409.2 lineto
stroke
showpage
grestore
%%EOF
